dump.vcd
$date
	Tue Nov 21 17:59:30 2023
$end
$version
	Icarus Verilog
$end
$timescale
	1ps
$end
$scope module tb_processor $end
$var wire 32 ! inst_o_WB [31:0] $end
$var wire 32 " inst_o_ME [31:0] $end
$var wire 32 # inst_o_IF [31:0] $end
$var wire 32 $ inst_o_ID [31:0] $end
$var wire 32 % inst_o_EX [31:0] $end
$var reg 1 & clk $end
$var reg 1 ' reset $end
$var reg 1 ( start $end
$scope module processor $end
$var wire 1 & clk $end
$var wire 1 ) d_we_wb $end
$var wire 1 ' reset $end
$var wire 1 ( start $end
$var wire 1 * rs2_re $end
$var wire 32 + rs2_data [31:0] $end
$var wire 5 , rs2_addr [4:0] $end
$var wire 1 - rs1_re $end
$var wire 32 . rs1_data [31:0] $end
$var wire 5 / rs1_addr [4:0] $end
$var wire 1 0 rd_write_enable_to_EX $end
$var wire 1 1 rd_we_wb $end
$var wire 1 2 rd_we_to_WB $end
$var wire 1 3 rd_we_to_MEM $end
$var wire 1 4 rd_we_out $end
$var wire 1 5 rd_we $end
$var wire 1 6 rd_en $end
$var wire 32 7 rd_data_to_WB [31:0] $end
$var wire 32 8 rd_data_to_MEM [31:0] $end
$var wire 32 9 rd_data_out_to_register [31:0] $end
$var wire 32 : rd_data_out [31:0] $end
$var wire 32 ; rd_data [31:0] $end
$var wire 5 < rd_addr_wb [4:0] $end
$var wire 5 = rd_addr_to_register [4:0] $end
$var wire 5 > rd_addr_to_WB [4:0] $end
$var wire 5 ? rd_addr_to_MEM [4:0] $end
$var wire 5 @ rd_addr_to_EX [4:0] $end
$var wire 5 A rd_addr_out [4:0] $end
$var wire 5 B rd_addr [4:0] $end
$var wire 32 C ram_location [31:0] $end
$var wire 2 D prediction_state [1:0] $end
$var wire 32 E pc_to_ID [31:0] $end
$var wire 32 F pc_to_EX [31:0] $end
$var wire 32 G pc_from_IF [31:0] $end
$var wire 32 H pc [31:0] $end
$var wire 32 I op2_to_EX [31:0] $end
$var wire 32 J op2 [31:0] $end
$var wire 32 K op1_to_EX [31:0] $end
$var wire 32 L op1 [31:0] $end
$var wire 1 M mmr_write_enable_to_EX $end
$var wire 1 N mmr_write_enable $end
$var wire 1 O mmr_we_wb_out_to_MMR $end
$var wire 1 P mmr_we_wb_out $end
$var wire 1 Q mmr_we_wb $end
$var wire 1 R mmr_we_to_WB $end
$var wire 1 S mmr_we_to_MEM $end
$var wire 32 T mmr_location_to_WB [31:0] $end
$var wire 32 U mmr_location_out [31:0] $end
$var wire 32 V mmr_location [31:0] $end
$var wire 32 W memory_offset_to_EX [31:0] $end
$var wire 32 X memory_offset [31:0] $end
$var wire 32 Y mem_location_MEM [31:0] $end
$var wire 3 Z mem_flag_MEM [2:0] $end
$var wire 3 [ mem_flag [2:0] $end
$var wire 32 \ mem_addr_mem [31:0] $end
$var wire 32 ] loadnoc_data_to_WB [31:0] $end
$var wire 32 ^ loadnoc_data_out_to_MMR [31:0] $end
$var wire 32 _ loadnoc_data [31:0] $end
$var wire 32 ` inst_to_MEM [31:0] $end
$var wire 32 a inst_to_ID [31:0] $end
$var wire 32 b inst_to_EX [31:0] $end
$var wire 32 c inst_out_to_WB [31:0] $end
$var wire 32 d inst_o_WB [31:0] $end
$var wire 32 e inst_o_ROM [31:0] $end
$var wire 32 f inst_o_ME [31:0] $end
$var wire 32 g inst_o_IF [31:0] $end
$var wire 32 h inst_o_ID [31:0] $end
$var wire 32 i inst_o_EX [31:0] $end
$var wire 32 j data_to_store [31:0] $end
$var wire 32 k data_to_memory_from_ex [31:0] $end
$var wire 32 l data_to_memory_MEM [31:0] $end
$var wire 32 m data_from_RAM [31:0] $end
$var wire 32 n branch_address [31:0] $end
$var wire 1 o branch $end
$var wire 4 p alu_control_to_EX [3:0] $end
$var wire 4 q alu_control [3:0] $end
$var wire 32 r addr_to_ROM [31:0] $end
$var wire 32 s U_type_imm_to_EX [31:0] $end
$var wire 32 t U_type_imm [31:0] $end
$var wire 1 u U_type_flag_to_EX $end
$var wire 1 v U_type_flag $end
$var wire 1 w RAM_we $end
$var wire 1 x RAM_re $end
$scope module EXMEM $end
$var wire 1 & clk $end
$var wire 1 ' reset $end
$var wire 1 1 rd_we_from_EX $end
$var wire 32 y rd_data_from_EX [31:0] $end
$var wire 5 z rd_addr_from_EX [4:0] $end
$var wire 1 Q mmr_we_from_EX $end
$var wire 32 { mem_location_EX [31:0] $end
$var wire 3 | mem_flag_EX [2:0] $end
$var wire 32 } inst_from_EX [31:0] $end
$var wire 32 ~ data_to_memory_EX [31:0] $end
$var reg 32 !" data_to_memory_MEM [31:0] $end
$var reg 32 "" inst_to_MEM [31:0] $end
$var reg 3 #" mem_flag_MEM [2:0] $end
$var reg 32 $" mem_location_MEM [31:0] $end
$var reg 1 S mmr_we_to_MEM $end
$var reg 5 %" rd_addr_to_MEM [4:0] $end
$var reg 32 &" rd_data_to_MEM [31:0] $end
$var reg 1 3 rd_we_to_MEM $end
$upscope $end
$scope module IDEX $end
$var wire 1 & clk $end
$var wire 32 '" pc_from_ID [31:0] $end
$var wire 1 ' reset $end
$var wire 1 5 rd_write_enable_from_ID $end
$var wire 5 (" rd_addr_from_ID [4:0] $end
$var wire 32 )" op2_from_ID [31:0] $end
$var wire 32 *" op1_from_ID [31:0] $end
$var wire 1 N mmr_write_enable_from_ID $end
$var wire 32 +" memory_offset_from_ID [31:0] $end
$var wire 32 ," inst_from_ID [31:0] $end
$var wire 4 -" alu_control_ID [3:0] $end
$var wire 32 ." U_type_imm_from_ID [31:0] $end
$var wire 1 v U_type_flag_from_ID $end
$var reg 1 u U_type_flag_to_EX $end
$var reg 32 /" U_type_imm_to_EX [31:0] $end
$var reg 4 0" alu_control_to_EX [3:0] $end
$var reg 32 1" inst_to_EX [31:0] $end
$var reg 32 2" memory_offset_to_EX [31:0] $end
$var reg 1 M mmr_write_enable_to_EX $end
$var reg 32 3" op1_to_EX [31:0] $end
$var reg 32 4" op2_to_EX [31:0] $end
$var reg 32 5" pc_to_EX [31:0] $end
$var reg 5 6" rd_addr_to_EX [4:0] $end
$var reg 1 0 rd_write_enable_to_EX $end
$upscope $end
$scope module IFID $end
$var wire 1 & clk $end
$var wire 1 ' reset $end
$var wire 32 7" pc_from_IF [31:0] $end
$var wire 32 8" inst_from_IF [31:0] $end
$var wire 1 o if_branch $end
$var reg 32 9" inst_to_ID [31:0] $end
$var reg 32 :" pc_to_ID [31:0] $end
$upscope $end
$scope module MEMWB $end
$var wire 1 & clk $end
$var wire 1 ' reset $end
$var wire 1 4 rd_we_out_from_MEM $end
$var wire 32 ;" rd_data_from_MEM [31:0] $end
$var wire 5 <" rd_addr_from_MEM [4:0] $end
$var wire 1 P mmr_we_from_MEM $end
$var wire 32 =" mmr_location_from_MEM [31:0] $end
$var wire 32 >" loadnoc_data_from_MEM [31:0] $end
$var wire 32 ?" inst_out_from_MEM [31:0] $end
$var reg 32 @" inst_out_to_WB [31:0] $end
$var reg 32 A" loadnoc_data_to_WB [31:0] $end
$var reg 32 B" mmr_location_to_WB [31:0] $end
$var reg 1 R mmr_we_to_WB $end
$var reg 5 C" rd_addr_to_WB [4:0] $end
$var reg 32 D" rd_data_to_WB [31:0] $end
$var reg 1 2 rd_we_to_WB $end
$upscope $end
$scope module MM $end
$var wire 32 E" data_to_memory_from_ex [31:0] $end
$var wire 32 F" inst_from_ex [31:0] $end
$var wire 32 G" inst_out_mem [31:0] $end
$var wire 3 H" mem_flag [2:0] $end
$var wire 32 I" mem_location [31:0] $end
$var wire 1 S mmr_we_wb $end
$var wire 5 J" rd_addr [4:0] $end
$var wire 32 K" rd_data [31:0] $end
$var wire 1 3 rd_we $end
$var wire 1 ' reset $end
$var wire 32 L" data_from_RAM [31:0] $end
$var reg 1 x RAM_re $end
$var reg 1 w RAM_we $end
$var reg 32 M" data_to_store [31:0] $end
$var reg 32 N" loadnoc_data [31:0] $end
$var reg 32 O" mmr_location [31:0] $end
$var reg 1 P mmr_we_wb_out $end
$var reg 32 P" ram_location [31:0] $end
$var reg 5 Q" rd_addr_out [4:0] $end
$var reg 32 R" rd_data_out [31:0] $end
$var reg 1 4 rd_we_out $end
$upscope $end
$scope module bp $end
$var wire 1 ' reset $end
$var wire 32 S" instruction [31:0] $end
$var wire 7 T" branch_opcode [6:0] $end
$var wire 1 o actually_taken $end
$var parameter 2 U" SNT $end
$var parameter 2 V" ST $end
$var parameter 2 W" WNT $end
$var parameter 2 X" WT $end
$var reg 1 Y" isBranch $end
$var reg 2 Z" prediction_state [1:0] $end
$upscope $end
$scope module ex $end
$var wire 1 u U_type_flag $end
$var wire 32 [" U_type_imm [31:0] $end
$var wire 4 \" alu_control [3:0] $end
$var wire 32 ]" inst_from_Decode [31:0] $end
$var wire 32 ^" mem_offset [31:0] $end
$var wire 1 M mmr_write_enable $end
$var wire 32 _" op1 [31:0] $end
$var wire 32 `" op2 [31:0] $end
$var wire 5 a" rd_addr [4:0] $end
$var wire 1 0 rd_we $end
$var wire 1 ' reset $end
$var wire 32 b" result [31:0] $end
$var reg 32 c" data_to_memory_from_ex [31:0] $end
$var reg 32 d" inst_to_mem [31:0] $end
$var reg 32 e" mem_addr_mem [31:0] $end
$var reg 3 f" mem_flag [2:0] $end
$var reg 1 Q mmr_we_wb $end
$var reg 4 g" op_alu [3:0] $end
$var reg 5 h" rd_addr_wb [4:0] $end
$var reg 32 i" rd_data [31:0] $end
$var reg 1 1 rd_we_wb $end
$var reg 32 j" rs1_alu [31:0] $end
$var reg 32 k" rs2_alu [31:0] $end
$var reg 32 l" rs3_alu [31:0] $end
$scope module alu_ex $end
$var wire 4 m" alu_operation [3:0] $end
$var wire 1 ' reset $end
$var wire 32 n" rs1 [31:0] $end
$var wire 32 o" rs2 [31:0] $end
$var wire 32 p" rs3 [31:0] $end
$var reg 32 q" rd [31:0] $end
$var reg 5 r" rs2_5b [4:0] $end
$upscope $end
$upscope $end
$scope module id $end
$var wire 32 s" data_from_mem [31:0] $end
$var wire 32 t" instruction [31:0] $end
$var wire 3 u" mem_flag [2:0] $end
$var wire 32 v" pc [31:0] $end
$var wire 5 w" prev_des_addr [4:0] $end
$var wire 1 ) prev_rd_we $end
$var wire 32 x" prev_result [31:0] $end
$var wire 1 ' reset $end
$var wire 32 y" rs3_data [31:0] $end
$var wire 5 z" shamt [4:0] $end
$var wire 32 {" rs2_data [31:0] $end
$var wire 5 |" rs2 [4:0] $end
$var wire 32 }" rs1_data [31:0] $end
$var wire 5 ~" rs1 [4:0] $end
$var wire 5 !# rd [4:0] $end
$var wire 7 "# opcode [6:0] $end
$var wire 7 ## funct7 [6:0] $end
$var wire 3 $# funct3 [2:0] $end
$var wire 20 %# U_imm [19:0] $end
$var wire 12 &# S_imm [11:0] $end
$var wire 12 '# I_imm [11:0] $end
$var reg 32 (# SB_type_addr [31:0] $end
$var reg 1 v U_type_flag $end
$var reg 32 )# U_type_imm [31:0] $end
$var reg 4 *# alu_control [3:0] $end
$var reg 1 o br $end
$var reg 32 +# br_location [31:0] $end
$var reg 32 ,# cal_branch_addr [31:0] $end
$var reg 10 -# funct7_3 [9:0] $end
$var reg 32 .# imm_data [31:0] $end
$var reg 32 /# instr_to_nextstage [31:0] $end
$var reg 32 0# memory_offset [31:0] $end
$var reg 1 N mmr_write_enable $end
$var reg 32 1# op1 [31:0] $end
$var reg 32 2# op2 [31:0] $end
$var reg 32 3# op3 [31:0] $end
$var reg 32 4# pc_to_nextstage [31:0] $end
$var reg 5 5# rd_addr [4:0] $end
$var reg 1 5 rd_write_enable $end
$var reg 5 6# rs1_addr [4:0] $end
$var reg 1 - rs1_read_enable $end
$var reg 5 7# rs2_addr [4:0] $end
$var reg 1 * rs2_read_enable $end
$var reg 5 8# rs3_addr [4:0] $end
$var reg 1 9# rs3_read_enable $end
$var reg 1 :# shamt_flag $end
$upscope $end
$scope module iff $end
$var wire 1 o branch $end
$var wire 1 ' reset $end
$var wire 32 ;# pc_into_IF [31:0] $end
$var wire 32 <# inst_from_ROM [31:0] $end
$var reg 32 =# addr_to_ROM [31:0] $end
$var reg 32 ># inst_to_decode [31:0] $end
$var reg 32 ?# pc_to_ID [31:0] $end
$var reg 1 6 rd_en $end
$upscope $end
$scope module mem $end
$var wire 1 6 en $end
$var wire 32 @# pc_addr [31:0] $end
$var reg 32 A# instruction [31:0] $end
$upscope $end
$scope module mm $end
$var wire 1 & clk $end
$var wire 32 B# data_to_store [31:0] $end
$var wire 32 C# ram_location [31:0] $end
$var wire 1 x rd_en $end
$var wire 1 ' reset $end
$var wire 1 w wr_en $end
$var parameter 32 D# MAXSIZE $end
$var reg 32 E# data_from_RAM [31:0] $end
$var integer 32 F# mem1 [31:0] $end
$var integer 32 G# mem2 [31:0] $end
$scope begin $ivl_for_loop3 $end
$var integer 32 H# j [31:0] $end
$upscope $end
$scope begin $ivl_for_loop4 $end
$var integer 32 I# i [31:0] $end
$upscope $end
$scope begin $ivl_for_loop5 $end
$var integer 32 J# j [31:0] $end
$upscope $end
$upscope $end
$scope module mmr $end
$var wire 1 & clk $end
$var wire 1 O mmr_we $end
$var wire 32 K# mmr_location [31:0] $end
$var wire 32 L# loadnoc_data_from_wb [31:0] $end
$var integer 32 M# fp1 [31:0] $end
$var integer 32 N# fp2 [31:0] $end
$scope begin $ivl_for_loop6 $end
$var integer 32 O# j [31:0] $end
$upscope $end
$scope begin $ivl_for_loop7 $end
$var integer 32 P# i [31:0] $end
$upscope $end
$scope begin $ivl_for_loop8 $end
$var integer 32 Q# j [31:0] $end
$upscope $end
$upscope $end
$scope module p $end
$var wire 1 o branch $end
$var wire 32 R# branch_address [31:0] $end
$var wire 1 & clk $end
$var wire 1 ' reset $end
$var wire 1 S# stall $end
$var wire 1 ( start $end
$var reg 32 T# pc [31:0] $end
$upscope $end
$scope module rb $end
$var wire 1 & clk $end
$var wire 1 5 rd_we $end
$var wire 1 ' reset $end
$var wire 5 U# rs1_addr [4:0] $end
$var wire 1 - rs1_re $end
$var wire 5 V# rs2_addr [4:0] $end
$var wire 1 * rs2_re $end
$var wire 32 W# rd_data_from_wb [31:0] $end
$var wire 5 X# rd_addr [4:0] $end
$var reg 32 Y# rs1_data [31:0] $end
$var reg 32 Z# rs2_data [31:0] $end
$var integer 32 [# regmem1 [31:0] $end
$var integer 32 \# regmem2 [31:0] $end
$scope begin $ivl_for_loop0 $end
$var integer 32 ]# j [31:0] $end
$upscope $end
$scope begin $ivl_for_loop1 $end
$var integer 32 ^# i [31:0] $end
$upscope $end
$scope begin $ivl_for_loop2 $end
$var integer 32 _# j [31:0] $end
$upscope $end
$upscope $end
$scope module wb $end
$var wire 32 `# inst_from_MEM [31:0] $end
$var wire 32 a# loadnoc_data [31:0] $end
$var wire 32 b# mmr_location [31:0] $end
$var wire 1 R mmr_we_wb $end
$var wire 5 c# rd_addr_from_mem [4:0] $end
$var wire 32 d# rd_data_from_mem [31:0] $end
$var wire 1 ' reset $end
$var wire 1 2 we $end
$var reg 32 e# inst_from_WB [31:0] $end
$var reg 32 f# loadnoc_data_out_to_MMR [31:0] $end
$var reg 32 g# mmr_location_out [31:0] $end
$var reg 1 O mmr_we_wb_out $end
$var reg 5 h# rd_addr_to_register [4:0] $end
$var reg 32 i# rd_data_out_to_register [31:0] $end
$upscope $end
$upscope $end
$upscope $end
$enddefinitions $end
$comment Show the parameter values. $end
$dumpall
b10000000000 D#
b10 X"
b1 W"
b11 V"
b0 U"
$end
#0
$dumpvars
bx i#
bx h#
bx g#
bx f#
bx e#
bx d#
bx c#
bx b#
bx a#
bx `#
bx _#
bx ^#
b100000 ]#
b10000000000000000000000000000011 \#
bx [#
bx Z#
bx Y#
bx X#
bx W#
bx V#
bx U#
bx T#
zS#
bx R#
b101 Q#
b101 P#
b101 O#
b0 N#
b0 M#
bx L#
bx K#
bx J#
bx I#
b100000 H#
b10000000000000000000000000000011 G#
bx F#
bx E#
bx C#
bx B#
bx A#
bx @#
bx ?#
bx >#
bx =#
bx <#
bx ;#
x:#
x9#
bx 8#
bx 7#
bx 6#
bx 5#
bx 4#
bx 3#
b0 2#
bx 1#
bx 0#
bx /#
bx .#
bx -#
bx ,#
bx +#
bx *#
bx )#
bx (#
bx '#
bx &#
bx %#
bx $#
bx ##
bx "#
bx !#
bx ~"
bx }"
bx |"
bx {"
bx z"
bz y"
bx x"
bx w"
bx v"
b11 u"
bx t"
bx s"
bx r"
bx q"
bx p"
bx o"
bx n"
b11 m"
bx l"
bx k"
bx j"
bx i"
bx h"
b11 g"
b11 f"
bx e"
bx d"
bx c"
bx b"
bx a"
bx `"
bx _"
bx ^"
bx ]"
bx \"
bx ["
b0 Z"
xY"
bx T"
bx S"
bx R"
bx Q"
bx P"
bx O"
bx N"
bx M"
bx L"
bx K"
bx J"
bx I"
bx H"
bx G"
bx F"
bx E"
bx D"
bx C"
bx B"
bx A"
bx @"
bx ?"
bx >"
bx ="
bx <"
bx ;"
bx :"
bx 9"
bx 8"
bx 7"
bx 6"
bx 5"
bx 4"
bx 3"
bx 2"
bx 1"
bx 0"
bx /"
bx ."
bx -"
bx ,"
bx +"
bx *"
b0 )"
bx ("
bz '"
bx &"
bx %"
bx $"
bx #"
bx ""
bx !"
bx ~
bx }
b11 |
bx {
bx z
bx y
0x
0w
xv
xu
bx t
bx s
bx r
bx q
bx p
xo
bx n
bx m
bx l
bx k
bx j
bx i
bx h
bx g
bx f
bx e
bx d
bx c
bx b
bx a
bx `
bx _
bx ^
bx ]
bx \
b11 [
bx Z
bx Y
bx X
bx W
bx V
bx U
bx T
xS
xR
xQ
0P
xO
xN
xM
bx L
bx K
b0 J
bx I
bx H
bx G
bx F
bx E
b0 D
bx C
bx B
bx A
bx @
bx ?
bx >
bx =
bx <
bx ;
bx :
bx 9
bx 8
bx 7
16
x5
x4
x3
x2
x1
x0
bx /
bx .
x-
bx ,
bx +
x*
z)
1(
0'
0&
bx %
bx $
bx #
bx "
bx !
$end
#5000
b0 F
b0 4#
01
b0 k
b0 ~
b0 c"
b11111111111111111111111111111100 H
b11111111111111111111111111111100 ;#
b11111111111111111111111111111100 T#
b0 E
b0 :"
b0 v"
b0 p
b0 0"
b0 \"
00
b0 s
b0 /"
b0 ["
b0 W
b0 2"
b0 ^"
b0 I
b0 4"
b0 `"
b0 K
b0 3"
b0 _"
b0 l
b0 !"
b0 E"
b0 Y
b0 $"
b0 I"
b0 8
b0 &"
b0 K"
03
b0 >
b0 C"
b0 c#
b0 7
b0 D"
b0 d#
02
b0 \
b0 {
b0 e"
b0 +
b0 {"
b0 Z#
b0 .
b0 }"
b0 Y#
04
b0 A
b0 <"
b0 Q"
b0 :
b0 ;"
b0 R"
b0 s"
b0 j
b0 M"
b0 B#
b0 C
b0 P"
b0 C#
xQ
b0 ;
b0 y
b0 i"
b0 x"
bx <
bx z
bx h"
bx w"
b0 g"
b0 m"
b0 l"
b0 p"
b0 k"
b0 o"
b0 j"
b0 n"
b0 b"
b0 q"
b0 L
b0 *"
b0 1#
0N
05
b0 n
b0 +#
b0 R#
0o
b0 X
b0 +"
b0 0#
b0 q
b0 -"
b0 *#
b0 /
b0 6#
b0 U#
b0 ,
b0 7#
b0 V#
b0 8#
b0 B
b0 ("
b0 5#
0-
0*
09#
06
b0 #
b0 g
b0 8"
b0 >#
b0 G
b0 7"
b0 ?#
b0 ^
b0 L#
b0 f#
b0 U
b0 K#
b0 g#
b0 =
b0 X#
b0 h#
b0 9
b0 W#
b0 i#
1'
1&
#10000
b11000001000010001111111 e
b11000001000010001111111 <#
b11000001000010001111111 A#
b0 \
b0 {
b0 e"
b0 ;
b0 y
b0 i"
b0 x"
bx A
bx <"
bx Q"
b11 g"
b11 m"
b0 b"
b0 q"
bx J
bx )"
bx 2#
16
b11000001000010001111111 #
b11000001000010001111111 g
b11000001000010001111111 8"
b11000001000010001111111 >#
b11111111111111111111111111111100 G
b11111111111111111111111111111100 7"
b11111111111111111111111111111100 ?#
b11111111111111111111111111111100 r
b11111111111111111111111111111100 =#
b11111111111111111111111111111100 @#
0'
0&
#15000
b100011010010001111111 #
b100011010010001111111 g
b100011010010001111111 8"
b100011010010001111111 >#
b100011010010001111111 e
b100011010010001111111 <#
b100011010010001111111 A#
b101 L
b101 *"
b101 1#
b110 +
b110 {"
b110 Z#
b101 .
b101 }"
b101 Y#
0Y"
b110 J
b110 )"
b110 2#
b1100 q
b1100 -"
b1100 *#
b1000 X
b1000 +"
b1000 0#
b0 .#
1N
b110 ,
b110 7#
b110 V#
b1 /
b1 6#
b1 U#
1*
1-
b0 -#
b1111111 T"
0O
bx =
bx X#
bx h#
0Q
b0 <
b0 z
b0 h"
b0 w"
bx k
bx ~
bx c"
b1111111 "#
b0 $#
b0 ##
b110 z"
b1 ~"
b110 |"
b1000 !#
b110 '#
b1000 &#
b11000001000 %#
b11000001000010001111111 $
b11000001000010001111111 h
b11000001000010001111111 ,"
b11000001000010001111111 S"
b11000001000010001111111 /#
b11111111111111111111111111111100 F
b11111111111111111111111111111100 4#
b0 G
b0 7"
b0 ?#
b0 r
b0 =#
b0 @#
0R
bx >
bx C"
bx c#
b11 Z
b11 #"
b11 H"
0M
b0 @
b0 6"
b0 a"
bx s
bx /"
bx ["
bx I
bx 4"
bx `"
bz 5"
b11000001000010001111111 a
b11000001000010001111111 9"
b11000001000010001111111 t"
b11111111111111111111111111111100 E
b11111111111111111111111111111100 :"
b11111111111111111111111111111100 v"
b0 H
b0 ;#
b0 T#
1&
#20000
0&
#25000
b100100010010001111111 #
b100100010010001111111 g
b100100010010001111111 8"
b100100010010001111111 >#
b100100010010001111111 e
b100100010010001111111 <#
b100100010010001111111 A#
b1101 \
b1101 {
b1101 e"
b101 J
b101 )"
b101 2#
b100000000000000 L
b100000000000000 *"
b100000000000000 1#
b101 +
b101 {"
b101 Z#
b100000000000000 .
b100000000000000 }"
b100000000000000 Y#
b1101 ;
b1101 y
b1101 i"
b1101 x"
b1 ,
b1 7#
b1 V#
b11 /
b11 6#
b11 U#
b10 -#
b1101 b"
b1101 q"
b100 G
b100 7"
b100 ?#
b100 r
b100 =#
b100 @#
b10 $#
b1 z"
b11 ~"
b1 |"
b1 '#
b100011010 %#
b100011010010001111111 $
b100011010010001111111 h
b100011010010001111111 ,"
b100011010010001111111 S"
b100011010010001111111 /#
b0 F
b0 4#
1Q
b1000 k"
b1000 o"
b101 j"
b101 n"
b110 k
b110 ~
b110 c"
b11000001000010001111111 %
b11000001000010001111111 i
b11000001000010001111111 }
b11000001000010001111111 d"
b100 H
b100 ;#
b100 T#
b100011010010001111111 a
b100011010010001111111 9"
b100011010010001111111 t"
b0 E
b0 :"
b0 v"
1M
b1100 p
b1100 0"
b1100 \"
b1000 W
b1000 2"
b1000 ^"
b110 I
b110 4"
b110 `"
b101 K
b101 3"
b101 _"
b11000001000010001111111 b
b11000001000010001111111 1"
b11000001000010001111111 ]"
0S
bx l
bx !"
bx E"
b0 ?
b0 %"
b0 J"
1&
#30000
0&
#35000
b10000000000000010010011 #
b10000000000000010010011 g
b10000000000000010010011 8"
b10000000000000010010011 >#
b10000000000000010010011 e
b10000000000000010010011 <#
b10000000000000010010011 A#
b100000000001000 \
b100000000001000 {
b100000000001000 e"
b100000000001000 L
b100000000001000 *"
b100000000001000 1#
b100000000001000 ;
b100000000001000 y
b100000000001000 i"
b100000000001000 x"
b100000000001000 .
b100000000001000 }"
b100000000001000 Y#
b100000000001000 b"
b100000000001000 q"
b100 /
b100 6#
b100 U#
b1101 C
b1101 P"
b1101 C#
b100000000000000 j"
b100000000000000 n"
b101 k
b101 ~
b101 c"
b100011010010001111111 %
b100011010010001111111 i
b100011010010001111111 }
b100011010010001111111 d"
b100 ~"
b100100010 %#
b100100010010001111111 $
b100100010010001111111 h
b100100010010001111111 ,"
b100100010010001111111 S"
b100100010010001111111 /#
b100 F
b100 4#
b1000 G
b1000 7"
b1000 ?#
b1000 r
b1000 =#
b1000 @#
1S
b11000001000010001111111 "
b11000001000010001111111 f
b11000001000010001111111 ?"
b11000001000010001111111 G"
b11000001000010001111111 `
b11000001000010001111111 ""
b11000001000010001111111 F"
b110 l
b110 !"
b110 E"
b1101 Y
b1101 $"
b1101 I"
b1101 8
b1101 &"
b1101 K"
b101 I
b101 4"
b101 `"
b100000000000000 K
b100000000000000 3"
b100000000000000 _"
b100011010010001111111 b
b100011010010001111111 1"
b100011010010001111111 ]"
b100100010010001111111 a
b100100010010001111111 9"
b100100010010001111111 t"
b100 E
b100 :"
b100 v"
b1000 H
b1000 ;#
b1000 T#
1&
#40000
0&
#45000
b10000000000000100010011 #
b10000000000000100010011 g
b10000000000000100010011 8"
b10000000000000100010011 >#
b10000000000000100010011 e
b10000000000000100010011 <#
b10000000000000100010011 A#
b100000000010000 \
b100000000010000 {
b100000000010000 e"
b0 L
b0 *"
b0 1#
b100000 _#
b10000000000000000000000000000011 [#
b100000 ^#
b0 +
b0 {"
b0 Z#
b0 .
b0 }"
b0 Y#
b100000000010000 ;
b100000000010000 y
b100000000010000 i"
b100000000010000 x"
b100 J
b100 )"
b100 2#
0:#
b11 q
b11 -"
b11 *#
b0 X
b0 +"
b0 0#
b100 .#
0N
15
b1 B
b1 ("
b1 5#
b0 ,
b0 7#
b0 V#
b0 /
b0 6#
b0 U#
0*
b0 -#
b10011 T"
b100000000010000 b"
b100000000010000 q"
b1100 G
b1100 7"
b1100 ?#
b1100 r
b1100 =#
b1100 @#
b10011 "#
b0 $#
b100 z"
b0 ~"
b100 |"
b1 !#
b100 '#
b1 &#
b10000000000 %#
b10000000000000010010011 $
b10000000000000010010011 h
b10000000000000010010011 ,"
b10000000000000010010011 S"
b10000000000000010010011 /#
b1000 F
b1000 4#
b100000000001000 j"
b100000000001000 n"
b100100010010001111111 %
b100100010010001111111 i
b100100010010001111111 }
b100100010010001111111 d"
b101 _
b101 >"
b101 N"
b100000000001000 V
b100000000001000 ="
b100000000001000 O"
1P
b100000000001000 C
b100000000001000 P"
b100000000001000 C#
b11000001000010001111111 !
b11000001000010001111111 d
b11000001000010001111111 e#
b1100 H
b1100 ;#
b1100 T#
b10000000000000010010011 a
b10000000000000010010011 9"
b10000000000000010010011 t"
b1000 E
b1000 :"
b1000 v"
b100000000001000 K
b100000000001000 3"
b100000000001000 _"
b100100010010001111111 b
b100100010010001111111 1"
b100100010010001111111 ]"
b100011010010001111111 "
b100011010010001111111 f
b100011010010001111111 ?"
b100011010010001111111 G"
b100011010010001111111 `
b100011010010001111111 ""
b100011010010001111111 F"
b101 l
b101 !"
b101 E"
b100000000001000 Y
b100000000001000 $"
b100000000001000 I"
b100000000001000 8
b100000000001000 &"
b100000000001000 K"
b11000001000010001111111 c
b11000001000010001111111 @"
b11000001000010001111111 `#
1&
#50000
0&
#55000
b101101010000100101100011 #
b101101010000100101100011 g
b101101010000100101100011 8"
b101101010000100101100011 >#
b101101010000100101100011 e
b101101010000100101100011 <#
b101101010000100101100011 A#
b100 ;
b100 y
b100 i"
b100 x"
b100 b"
b100 q"
b10 B
b10 ("
b10 5#
1O
b101 ^
b101 L#
b101 f#
b100000000001000 U
b100000000001000 K#
b100000000001000 g#
b100011010010001111111 !
b100011010010001111111 d
b100011010010001111111 e#
b1 _
b1 >"
b1 N"
b100000000010000 V
b100000000010000 ="
b100000000010000 O"
b100000000010000 C
b100000000010000 P"
b100000000010000 C#
b0 \
b0 {
b0 e"
0Q
11
b1 <
b1 z
b1 h"
b1 w"
b0 [
b0 |
b0 f"
b0 u"
b100 k"
b100 o"
b0 j"
b0 n"
bx k
bx ~
bx c"
b10000000000000010010011 %
b10000000000000010010011 i
b10000000000000010010011 }
b10000000000000010010011 d"
b10 !#
b10 &#
b10000000000000100010011 $
b10000000000000100010011 h
b10000000000000100010011 ,"
b10000000000000100010011 S"
b10000000000000100010011 /#
b1100 F
b1100 4#
b10000 G
b10000 7"
b10000 ?#
b10000 r
b10000 =#
b10000 @#
b100000000001000 T
b100000000001000 B"
b100000000001000 b#
1R
b101 ]
b101 A"
b101 a#
b100011010010001111111 c
b100011010010001111111 @"
b100011010010001111111 `#
b100100010010001111111 "
b100100010010001111111 f
b100100010010001111111 ?"
b100100010010001111111 G"
b100100010010001111111 `
b100100010010001111111 ""
b100100010010001111111 F"
b100000000010000 Y
b100000000010000 $"
b100000000010000 I"
b100000000010000 8
b100000000010000 &"
b100000000010000 K"
0M
b11 p
b11 0"
b11 \"
10
b1 @
b1 6"
b1 a"
b0 W
b0 2"
b0 ^"
b100 I
b100 4"
b100 `"
b0 K
b0 3"
b0 _"
b10000000000000010010011 b
b10000000000000010010011 1"
b10000000000000010010011 ]"
b10000000000000100010011 a
b10000000000000100010011 9"
b10000000000000100010011 t"
b1100 E
b1100 :"
b1100 v"
b10000 H
b10000 ;#
b10000 T#
1&
#60000
0&
